filename,ID
ERS1_1_20191118_US_C_003_processed.csv,122
ERS1_1_20191118_US_C_004_processed.csv,123
ERS1_1_20191118_US_E_005_processed.csv,124
ERS1_1_20191118_US_W_002_processed.csv,125
ANL_42-25_20191203_US_C_003_processed.csv,144
ANL_42-25_20191203_US_C_004_processed.csv,145
ANL_42-25_20191203_US_C_010_processed.csv,152
ANL_42-25_20191203_US_N_001_processed.csv,142
ANL_42-25_20191203_US_N_002_processed.csv,143
ANL_42-25_20191203_US_N_011_processed.csv,153
ANL_42-25_20191203_US_S_005_processed.csv,146
ANL_42-25_20191203_US_S_006_processed.csv,147
WBB_28_06_20200225_US-C_007_processed.csv,132
WBB_28_06_20200225_US-C_008_processed.csv,133
WBB_28_06_20200225_US-C_009_processed.csv,134
WBB_28_06_20200225_US-E_010_processed.csv,135
WBB_28_06_20200225_US-E_011_processed.csv,136
WBB_28_06_20200225_US-W_005_processed.csv,127
WBB_28_06_20200225_US-W_003_processed.csv,128
WBB_28_06_20200225_US-W_004_processed.csv,129
ECM1_247_20191118_US_C_004_processed.csv,29
ECM1_247_20191118_US_C_010_processed.csv,35
ECM1_247_20191118_US_E_003_processed.csv,28
ECM1_247_20191118_US_E_011_processed.csv,36
ECM1_247_20191118_US_W_005_processed.csv,30
ECM1_247_20191118_US_W_009_processed.csv,34
